{
  "page": 1,
  "per_page": 15,
  "photos": [
    {
      "id": 2430365,
      "width": 3456,
      "height": 5184,
      "url": "https://www.pexels.com/photo/nature-love-flowers-summer-2430365/",
      "photographer": "NastyaSensei",
      "photographer_url": "https://www.pexels.com/@nastyasensei-66707",
      "photographer_id": 66707,
      "avg_color": "#888888",
      "src": {
        "original": "https://images.pexels.com/photos/2430365/pexels-photo-2430365.jpeg",
        "large2x": "https://images.pexels.com/photos/2430365/pexels-photo-2430365.jpeg?auto=compress\u0026cs=tinysrgb\u0026dpr=2\u0026h=650\u0026w=940",
        "large": "https://images.pexels.com/photos/2430365/pexels-photo-2430365.jpeg?auto=compress\u0026cs=tinysrgb\u0026h=650\u0026w=940",
        "medium": "https://images.pexels.com/photos/2430365/pexels-photo-2430365.jpeg?auto=compress\u0026cs=tinysrgb\u0026h=350",
        "small": "https://images.pexels.com/photos/2430365/pexels-photo-2430365.jpeg?auto=compress\u0026cs=tinysrgb\u0026h=130",
        "portrait": "https://images.pexels.com/photos/2430365/pexels-photo-2430365.jpeg?auto=compress\u0026cs=tinysrgb\u0026fit=crop\u0026h=1200\u0026w=800",
        "landscape": "https://images.pexels.com/photos/2430365/pexels-photo-2430365.jpeg?auto=compress\u0026cs=tinysrgb\u0026fit=crop\u0026h=627\u0026w=1200",
        "tiny": "https://images.pexels.com/photos/2430365/pexels-photo-2430365.jpeg?auto=compress\u0026cs=tinysrgb\u0026dpr=1\u0026fit=crop\u0026h=200\u0026w=280"
      },
      "liked": false
    },
    {
      "id": 4101008,
      "width": 2400,
      "height": 3000,
      "url": "https://www.pexels.com/photo/sea-landscape-beach-sand-4101008/",
      "photographer": "Alasdair  Braxton",
      "photographer_url": "https://www.pexels.com/@alasdair-braxton-621739",
      "photographer_id": 621739,
      "avg_color": "#ADA69A",
      "src": {
        "original": "https://images.pexels.com/photos/4101008/pexels-photo-4101008.jpeg",
        "large2x": "https://images.pexels.com/photos/4101008/pexels-photo-4101008.jpeg?auto=compress\u0026cs=tinysrgb\u0026dpr=2\u0026h=650\u0026w=940",
        "large": "https://images.pexels.com/photos/4101008/pexels-photo-4101008.jpeg?auto=compress\u0026cs=tinysrgb\u0026h=650\u0026w=940",
        "medium": "https://images.pexels.com/photos/4101008/pexels-photo-4101008.jpeg?auto=compress\u0026cs=tinysrgb\u0026h=350",
        "small": "https://images.pexels.com/photos/4101008/pexels-photo-4101008.jpeg?auto=compress\u0026cs=tinysrgb\u0026h=130",
        "portrait": "https://images.pexels.com/photos/4101008/pexels-photo-4101008.jpeg?auto=compress\u0026cs=tinysrgb\u0026fit=crop\u0026h=1200\u0026w=800",
        "landscape": "https://images.pexels.com/photos/4101008/pexels-photo-4101008.jpeg?auto=compress\u0026cs=tinysrgb\u0026fit=crop\u0026h=627\u0026w=1200",
        "tiny": "https://images.pexels.com/photos/4101008/pexels-photo-4101008.jpeg?auto=compress\u0026cs=tinysrgb\u0026dpr=1\u0026fit=crop\u0026h=200\u0026w=280"
      },
      "liked": false
    },
    {
      "id": 4533075,
      "width": 4000,
      "height": 5000,
      "url": "https://www.pexels.com/photo/light-marketing-people-coffee-4533075/",
      "photographer": "Drew Williams",
      "photographer_url": "https://www.pexels.com/@drew-williams-1285451",
      "photographer_id": 1285451,
      "avg_color": "#2A2828",
      "src": {
        "original": "https://images.pexels.com/photos/4533075/pexels-photo-4533075.jpeg",
        "large2x": "https://images.pexels.com/photos/4533075/pexels-photo-4533075.jpeg?auto=compress\u0026cs=tinysrgb\u0026dpr=2\u0026h=650\u0026w=940",
        "large": "https://images.pexels.com/photos/4533075/pexels-photo-4533075.jpeg?auto=compress\u0026cs=tinysrgb\u0026h=650\u0026w=940",
        "medium": "https://images.pexels.com/photos/4533075/pexels-photo-4533075.jpeg?auto=compress\u0026cs=tinysrgb\u0026h=350",
        "small": "https://images.pexels.com/photos/4533075/pexels-photo-4533075.jpeg?auto=compress\u0026cs=tinysrgb\u0026h=130",
        "portrait": "https://images.pexels.com/photos/4533075/pexels-photo-4533075.jpeg?auto=compress\u0026cs=tinysrgb\u0026fit=crop\u0026h=1200\u0026w=800",
        "landscape": "https://images.pexels.com/photos/4533075/pexels-photo-4533075.jpeg?auto=compress\u0026cs=tinysrgb\u0026fit=crop\u0026h=627\u0026w=1200",
        "tiny": "https://images.pexels.com/photos/4533075/pexels-photo-4533075.jpeg?auto=compress\u0026cs=tinysrgb\u0026dpr=1\u0026fit=crop\u0026h=200\u0026w=280"
      },
      "liked": false
    },
    {
      "id": 6788862,
      "width": 2500,
      "height": 3750,
      "url": "https://www.pexels.com/photo/red-flower-on-white-sand-6788862/",
      "photographer": "How Far From Home",
      "photographer_url": "https://www.pexels.com/@how-far-from-home-3341908",
      "photographer_id": 3341908,
      "avg_color": "#C47581",
      "src": {
        "original": "https://images.pexels.com/photos/6788862/pexels-photo-6788862.jpeg",
        "large2x": "https://images.pexels.com/photos/6788862/pexels-photo-6788862.jpeg?auto=compress\u0026cs=tinysrgb\u0026dpr=2\u0026h=650\u0026w=940",
        "large": "https://images.pexels.com/photos/6788862/pexels-photo-6788862.jpeg?auto=compress\u0026cs=tinysrgb\u0026h=650\u0026w=940",
        "medium": "https://images.pexels.com/photos/6788862/pexels-photo-6788862.jpeg?auto=compress\u0026cs=tinysrgb\u0026h=350",
        "small": "https://images.pexels.com/photos/6788862/pexels-photo-6788862.jpeg?auto=compress\u0026cs=tinysrgb\u0026h=130",
        "portrait": "https://images.pexels.com/photos/6788862/pexels-photo-6788862.jpeg?auto=compress\u0026cs=tinysrgb\u0026fit=crop\u0026h=1200\u0026w=800",
        "landscape": "https://images.pexels.com/photos/6788862/pexels-photo-6788862.jpeg?auto=compress\u0026cs=tinysrgb\u0026fit=crop\u0026h=627\u0026w=1200",
        "tiny": "https://images.pexels.com/photos/6788862/pexels-photo-6788862.jpeg?auto=compress\u0026cs=tinysrgb\u0026dpr=1\u0026fit=crop\u0026h=200\u0026w=280"
      },
      "liked": false
    },
    {
      "id": 6780207,
      "width": 3888,
      "height": 5184,
      "url": "https://www.pexels.com/photo/grayscale-photo-of-houses-near-road-6780207/",
      "photographer": "Lisa Fotios",
      "photographer_url": "https://www.pexels.com/@fotios-photos",
      "photographer_id": 26735,
      "avg_color": "#686868",
      "src": {
        "original": "https://images.pexels.com/photos/6780207/pexels-photo-6780207.jpeg",
        "large2x": "https://images.pexels.com/photos/6780207/pexels-photo-6780207.jpeg?auto=compress\u0026cs=tinysrgb\u0026dpr=2\u0026h=650\u0026w=940",
        "large": "https://images.pexels.com/photos/6780207/pexels-photo-6780207.jpeg?auto=compress\u0026cs=tinysrgb\u0026h=650\u0026w=940",
        "medium": "https://images.pexels.com/photos/6780207/pexels-photo-6780207.jpeg?auto=compress\u0026cs=tinysrgb\u0026h=350",
        "small": "https://images.pexels.com/photos/6780207/pexels-photo-6780207.jpeg?auto=compress\u0026cs=tinysrgb\u0026h=130",
        "portrait": "https://images.pexels.com/photos/6780207/pexels-photo-6780207.jpeg?auto=compress\u0026cs=tinysrgb\u0026fit=crop\u0026h=1200\u0026w=800",
        "landscape": "https://images.pexels.com/photos/6780207/pexels-photo-6780207.jpeg?auto=compress\u0026cs=tinysrgb\u0026fit=crop\u0026h=627\u0026w=1200",
        "tiny": "https://images.pexels.com/photos/6780207/pexels-photo-6780207.jpeg?auto=compress\u0026cs=tinysrgb\u0026dpr=1\u0026fit=crop\u0026h=200\u0026w=280"
      },
      "liked": false
    },
    {
      "id": 3852300,
      "width": 3024,
      "height": 3780,
      "url": "https://www.pexels.com/photo/grayscale-photo-of-a-flower-3852300/",
      "photographer": "MOHAMED ABDELSADIG",
      "photographer_url": "https://www.pexels.com/@moab94",
      "photographer_id": 786714,
      "avg_color": "#2E2E2E",
      "src": {
        "original": "https://images.pexels.com/photos/3852300/pexels-photo-3852300.jpeg",
        "large2x": "https://images.pexels.com/photos/3852300/pexels-photo-3852300.jpeg?auto=compress\u0026cs=tinysrgb\u0026dpr=2\u0026h=650\u0026w=940",
        "large": "https://images.pexels.com/photos/3852300/pexels-photo-3852300.jpeg?auto=compress\u0026cs=tinysrgb\u0026h=650\u0026w=940",
        "medium": "https://images.pexels.com/photos/3852300/pexels-photo-3852300.jpeg?auto=compress\u0026cs=tinysrgb\u0026h=350",
        "small": "https://images.pexels.com/photos/3852300/pexels-photo-3852300.jpeg?auto=compress\u0026cs=tinysrgb\u0026h=130",
        "portrait": "https://images.pexels.com/photos/3852300/pexels-photo-3852300.jpeg?auto=compress\u0026cs=tinysrgb\u0026fit=crop\u0026h=1200\u0026w=800",
        "landscape": "https://images.pexels.com/photos/3852300/pexels-photo-3852300.jpeg?auto=compress\u0026cs=tinysrgb\u0026fit=crop\u0026h=627\u0026w=1200",
        "tiny": "https://images.pexels.com/photos/3852300/pexels-photo-3852300.jpeg?auto=compress\u0026cs=tinysrgb\u0026dpr=1\u0026fit=crop\u0026h=200\u0026w=280"
      },
      "liked": false
    },
    {
      "id": 6760183,
      "width": 2293,
      "height": 2510,
      "url": "https://www.pexels.com/photo/grayscale-photo-of-woman-in-bathtub-6760183/",
      "photographer": "Heloisa Vecchio",
      "photographer_url": "https://www.pexels.com/@heloisa-vecchio-25737016",
      "photographer_id": 25737016,
      "avg_color": "#4BBF4B",
      "src": {
        "original": "https://images.pexels.com/photos/6760183/pexels-photo-6760183.png",
        "large2x": "https://images.pexels.com/photos/6760183/pexels-photo-6760183.png?auto=compress\u0026cs=tinysrgb\u0026dpr=2\u0026h=650\u0026w=940",
        "large": "https://images.pexels.com/photos/6760183/pexels-photo-6760183.png?auto=compress\u0026cs=tinysrgb\u0026h=650\u0026w=940",
        "medium": "https://images.pexels.com/photos/6760183/pexels-photo-6760183.png?auto=compress\u0026cs=tinysrgb\u0026h=350",
        "small": "https://images.pexels.com/photos/6760183/pexels-photo-6760183.png?auto=compress\u0026cs=tinysrgb\u0026h=130",
        "portrait": "https://images.pexels.com/photos/6760183/pexels-photo-6760183.png?auto=compress\u0026cs=tinysrgb\u0026fit=crop\u0026h=1200\u0026w=800",
        "landscape": "https://images.pexels.com/photos/6760183/pexels-photo-6760183.png?auto=compress\u0026cs=tinysrgb\u0026fit=crop\u0026h=627\u0026w=1200",
        "tiny": "https://images.pexels.com/photos/6760183/pexels-photo-6760183.png?auto=compress\u0026cs=tinysrgb\u0026dpr=1\u0026fit=crop\u0026h=200\u0026w=280"
      },
      "liked": false
    },
    {
      "id": 6760219,
      "width": 2000,
      "height": 3000,
      "url": "https://www.pexels.com/photo/woman-in-red-spaghetti-strap-top-and-blue-white-plaid-skirt-6760219/",
      "photographer": "Maria Paula Vieira",
      "photographer_url": "https://www.pexels.com/@maria-paula-vieira-990530",
      "photographer_id": 990530,
      "avg_color": "#411E1C",
      "src": {
        "original": "https://images.pexels.com/photos/6760219/pexels-photo-6760219.jpeg",
        "large2x": "https://images.pexels.com/photos/6760219/pexels-photo-6760219.jpeg?auto=compress\u0026cs=tinysrgb\u0026dpr=2\u0026h=650\u0026w=940",
        "large": "https://images.pexels.com/photos/6760219/pexels-photo-6760219.jpeg?auto=compress\u0026cs=tinysrgb\u0026h=650\u0026w=940",
        "medium": "https://images.pexels.com/photos/6760219/pexels-photo-6760219.jpeg?auto=compress\u0026cs=tinysrgb\u0026h=350",
        "small": "https://images.pexels.com/photos/6760219/pexels-photo-6760219.jpeg?auto=compress\u0026cs=tinysrgb\u0026h=130",
        "portrait": "https://images.pexels.com/photos/6760219/pexels-photo-6760219.jpeg?auto=compress\u0026cs=tinysrgb\u0026fit=crop\u0026h=1200\u0026w=800",
        "landscape": "https://images.pexels.com/photos/6760219/pexels-photo-6760219.jpeg?auto=compress\u0026cs=tinysrgb\u0026fit=crop\u0026h=627\u0026w=1200",
        "tiny": "https://images.pexels.com/photos/6760219/pexels-photo-6760219.jpeg?auto=compress\u0026cs=tinysrgb\u0026dpr=1\u0026fit=crop\u0026h=200\u0026w=280"
      },
      "liked": false
    },
    {
      "id": 6757893,
      "width": 1953,
      "height": 3000,
      "url": "https://www.pexels.com/photo/woman-in-blue-and-red-dress-smiling-6757893/",
      "photographer": "Maria Paula Vieira",
      "photographer_url": "https://www.pexels.com/@maria-paula-vieira-990530",
      "photographer_id": 990530,
      "avg_color": "#81551E",
      "src": {
        "original": "https://images.pexels.com/photos/6757893/pexels-photo-6757893.jpeg",
        "large2x": "https://images.pexels.com/photos/6757893/pexels-photo-6757893.jpeg?auto=compress\u0026cs=tinysrgb\u0026dpr=2\u0026h=650\u0026w=940",
        "large": "https://images.pexels.com/photos/6757893/pexels-photo-6757893.jpeg?auto=compress\u0026cs=tinysrgb\u0026h=650\u0026w=940",
        "medium": "https://images.pexels.com/photos/6757893/pexels-photo-6757893.jpeg?auto=compress\u0026cs=tinysrgb\u0026h=350",
        "small": "https://images.pexels.com/photos/6757893/pexels-photo-6757893.jpeg?auto=compress\u0026cs=tinysrgb\u0026h=130",
        "portrait": "https://images.pexels.com/photos/6757893/pexels-photo-6757893.jpeg?auto=compress\u0026cs=tinysrgb\u0026fit=crop\u0026h=1200\u0026w=800",
        "landscape": "https://images.pexels.com/photos/6757893/pexels-photo-6757893.jpeg?auto=compress\u0026cs=tinysrgb\u0026fit=crop\u0026h=627\u0026w=1200",
        "tiny": "https://images.pexels.com/photos/6757893/pexels-photo-6757893.jpeg?auto=compress\u0026cs=tinysrgb\u0026dpr=1\u0026fit=crop\u0026h=200\u0026w=280"
      },
      "liked": false
    },
    {
      "id": 6757029,
      "width": 2080,
      "height": 2568,
      "url": "https://www.pexels.com/photo/woman-in-black-dress-standing-beside-woman-in-black-dress-6757029/",
      "photographer": "Lisa Fotios",
      "photographer_url": "https://www.pexels.com/@fotios-photos",
      "photographer_id": 26735,
      "avg_color": "#B19866",
      "src": {
        "original": "https://images.pexels.com/photos/6757029/pexels-photo-6757029.jpeg",
        "large2x": "https://images.pexels.com/photos/6757029/pexels-photo-6757029.jpeg?auto=compress\u0026cs=tinysrgb\u0026dpr=2\u0026h=650\u0026w=940",
        "large": "https://images.pexels.com/photos/6757029/pexels-photo-6757029.jpeg?auto=compress\u0026cs=tinysrgb\u0026h=650\u0026w=940",
        "medium": "https://images.pexels.com/photos/6757029/pexels-photo-6757029.jpeg?auto=compress\u0026cs=tinysrgb\u0026h=350",
        "small": "https://images.pexels.com/photos/6757029/pexels-photo-6757029.jpeg?auto=compress\u0026cs=tinysrgb\u0026h=130",
        "portrait": "https://images.pexels.com/photos/6757029/pexels-photo-6757029.jpeg?auto=compress\u0026cs=tinysrgb\u0026fit=crop\u0026h=1200\u0026w=800",
        "landscape": "https://images.pexels.com/photos/6757029/pexels-photo-6757029.jpeg?auto=compress\u0026cs=tinysrgb\u0026fit=crop\u0026h=627\u0026w=1200",
        "tiny": "https://images.pexels.com/photos/6757029/pexels-photo-6757029.jpeg?auto=compress\u0026cs=tinysrgb\u0026dpr=1\u0026fit=crop\u0026h=200\u0026w=280"
      },
      "liked": false
    },
    {
      "id": 6757954,
      "width": 1909,
      "height": 3000,
      "url": "https://www.pexels.com/photo/woman-in-white-tank-top-sitting-on-black-and-silver-wheel-chair-6757954/",
      "photographer": "Maria Paula Vieira",
      "photographer_url": "https://www.pexels.com/@maria-paula-vieira-990530",
      "photographer_id": 990530,
      "avg_color": "#281E1A",
      "src": {
        "original": "https://images.pexels.com/photos/6757954/pexels-photo-6757954.jpeg",
        "large2x": "https://images.pexels.com/photos/6757954/pexels-photo-6757954.jpeg?auto=compress\u0026cs=tinysrgb\u0026dpr=2\u0026h=650\u0026w=940",
        "large": "https://images.pexels.com/photos/6757954/pexels-photo-6757954.jpeg?auto=compress\u0026cs=tinysrgb\u0026h=650\u0026w=940",
        "medium": "https://images.pexels.com/photos/6757954/pexels-photo-6757954.jpeg?auto=compress\u0026cs=tinysrgb\u0026h=350",
        "small": "https://images.pexels.com/photos/6757954/pexels-photo-6757954.jpeg?auto=compress\u0026cs=tinysrgb\u0026h=130",
        "portrait": "https://images.pexels.com/photos/6757954/pexels-photo-6757954.jpeg?auto=compress\u0026cs=tinysrgb\u0026fit=crop\u0026h=1200\u0026w=800",
        "landscape": "https://images.pexels.com/photos/6757954/pexels-photo-6757954.jpeg?auto=compress\u0026cs=tinysrgb\u0026fit=crop\u0026h=627\u0026w=1200",
        "tiny": "https://images.pexels.com/photos/6757954/pexels-photo-6757954.jpeg?auto=compress\u0026cs=tinysrgb\u0026dpr=1\u0026fit=crop\u0026h=200\u0026w=280"
      },
      "liked": false
    },
    {
      "id": 6757261,
      "width": 3675,
      "height": 5505,
      "url": "https://www.pexels.com/photo/woman-hiding-behind-green-leaves-6757261/",
      "photographer": "Maressa Andrioli",
      "photographer_url": "https://www.pexels.com/@maressa-andrioli-25736042",
      "photographer_id": 25736042,
      "avg_color": "#574031",
      "src": {
        "original": "https://images.pexels.com/photos/6757261/pexels-photo-6757261.jpeg",
        "large2x": "https://images.pexels.com/photos/6757261/pexels-photo-6757261.jpeg?auto=compress\u0026cs=tinysrgb\u0026dpr=2\u0026h=650\u0026w=940",
        "large": "https://images.pexels.com/photos/6757261/pexels-photo-6757261.jpeg?auto=compress\u0026cs=tinysrgb\u0026h=650\u0026w=940",
        "medium": "https://images.pexels.com/photos/6757261/pexels-photo-6757261.jpeg?auto=compress\u0026cs=tinysrgb\u0026h=350",
        "small": "https://images.pexels.com/photos/6757261/pexels-photo-6757261.jpeg?auto=compress\u0026cs=tinysrgb\u0026h=130",
        "portrait": "https://images.pexels.com/photos/6757261/pexels-photo-6757261.jpeg?auto=compress\u0026cs=tinysrgb\u0026fit=crop\u0026h=1200\u0026w=800",
        "landscape": "https://images.pexels.com/photos/6757261/pexels-photo-6757261.jpeg?auto=compress\u0026cs=tinysrgb\u0026fit=crop\u0026h=627\u0026w=1200",
        "tiny": "https://images.pexels.com/photos/6757261/pexels-photo-6757261.jpeg?auto=compress\u0026cs=tinysrgb\u0026dpr=1\u0026fit=crop\u0026h=200\u0026w=280"
      },
      "liked": false
    },
    {
      "id": 6754913,
      "width": 3818,
      "height": 4773,
      "url": "https://www.pexels.com/photo/woman-in-white-tank-top-holding-clear-wine-glass-6754913/",
      "photographer": "Gabriel Dias",
      "photographer_url": "https://www.pexels.com/@gabriel-dias-3621761",
      "photographer_id": 3621761,
      "avg_color": "#6F6D63",
      "src": {
        "original": "https://images.pexels.com/photos/6754913/pexels-photo-6754913.jpeg",
        "large2x": "https://images.pexels.com/photos/6754913/pexels-photo-6754913.jpeg?auto=compress\u0026cs=tinysrgb\u0026dpr=2\u0026h=650\u0026w=940",
        "large": "https://images.pexels.com/photos/6754913/pexels-photo-6754913.jpeg?auto=compress\u0026cs=tinysrgb\u0026h=650\u0026w=940",
        "medium": "https://images.pexels.com/photos/6754913/pexels-photo-6754913.jpeg?auto=compress\u0026cs=tinysrgb\u0026h=350",
        "small": "https://images.pexels.com/photos/6754913/pexels-photo-6754913.jpeg?auto=compress\u0026cs=tinysrgb\u0026h=130",
        "portrait": "https://images.pexels.com/photos/6754913/pexels-photo-6754913.jpeg?auto=compress\u0026cs=tinysrgb\u0026fit=crop\u0026h=1200\u0026w=800",
        "landscape": "https://images.pexels.com/photos/6754913/pexels-photo-6754913.jpeg?auto=compress\u0026cs=tinysrgb\u0026fit=crop\u0026h=627\u0026w=1200",
        "tiny": "https://images.pexels.com/photos/6754913/pexels-photo-6754913.jpeg?auto=compress\u0026cs=tinysrgb\u0026dpr=1\u0026fit=crop\u0026h=200\u0026w=280"
      },
      "liked": false
    },
    {
      "id": 6757572,
      "width": 5820,
      "height": 3885,
      "url": "https://www.pexels.com/photo/man-in-black-tank-top-and-gray-denim-jeans-sitting-on-gray-ceramic-tiles-6757572/",
      "photographer": "Maressa Andrioli",
      "photographer_url": "https://www.pexels.com/@maressa-andrioli-25736042",
      "photographer_id": 25736042,
      "avg_color": "#675A4D",
      "src": {
        "original": "https://images.pexels.com/photos/6757572/pexels-photo-6757572.jpeg",
        "large2x": "https://images.pexels.com/photos/6757572/pexels-photo-6757572.jpeg?auto=compress\u0026cs=tinysrgb\u0026dpr=2\u0026h=650\u0026w=940",
        "large": "https://images.pexels.com/photos/6757572/pexels-photo-6757572.jpeg?auto=compress\u0026cs=tinysrgb\u0026h=650\u0026w=940",
        "medium": "https://images.pexels.com/photos/6757572/pexels-photo-6757572.jpeg?auto=compress\u0026cs=tinysrgb\u0026h=350",
        "small": "https://images.pexels.com/photos/6757572/pexels-photo-6757572.jpeg?auto=compress\u0026cs=tinysrgb\u0026h=130",
        "portrait": "https://images.pexels.com/photos/6757572/pexels-photo-6757572.jpeg?auto=compress\u0026cs=tinysrgb\u0026fit=crop\u0026h=1200\u0026w=800",
        "landscape": "https://images.pexels.com/photos/6757572/pexels-photo-6757572.jpeg?auto=compress\u0026cs=tinysrgb\u0026fit=crop\u0026h=627\u0026w=1200",
        "tiny": "https://images.pexels.com/photos/6757572/pexels-photo-6757572.jpeg?auto=compress\u0026cs=tinysrgb\u0026dpr=1\u0026fit=crop\u0026h=200\u0026w=280"
      },
      "liked": false
    },
    {
      "id": 6752261,
      "width": 4105,
      "height": 6157,
      "url": "https://www.pexels.com/photo/sea-fashion-man-beach-6752261/",
      "photographer": "Rachel Claire",
      "photographer_url": "https://www.pexels.com/@rachel-claire",
      "photographer_id": 2272619,
      "avg_color": "#878587",
      "src": {
        "original": "https://images.pexels.com/photos/6752261/pexels-photo-6752261.jpeg",
        "large2x": "https://images.pexels.com/photos/6752261/pexels-photo-6752261.jpeg?auto=compress\u0026cs=tinysrgb\u0026dpr=2\u0026h=650\u0026w=940",
        "large": "https://images.pexels.com/photos/6752261/pexels-photo-6752261.jpeg?auto=compress\u0026cs=tinysrgb\u0026h=650\u0026w=940",
        "medium": "https://images.pexels.com/photos/6752261/pexels-photo-6752261.jpeg?auto=compress\u0026cs=tinysrgb\u0026h=350",
        "small": "https://images.pexels.com/photos/6752261/pexels-photo-6752261.jpeg?auto=compress\u0026cs=tinysrgb\u0026h=130",
        "portrait": "https://images.pexels.com/photos/6752261/pexels-photo-6752261.jpeg?auto=compress\u0026cs=tinysrgb\u0026fit=crop\u0026h=1200\u0026w=800",
        "landscape": "https://images.pexels.com/photos/6752261/pexels-photo-6752261.jpeg?auto=compress\u0026cs=tinysrgb\u0026fit=crop\u0026h=627\u0026w=1200",
        "tiny": "https://images.pexels.com/photos/6752261/pexels-photo-6752261.jpeg?auto=compress\u0026cs=tinysrgb\u0026dpr=1\u0026fit=crop\u0026h=200\u0026w=280"
      },
      "liked": false
    }
  ],
  "total_results": 8000,
  "next_page": "https://api.pexels.com/v1/curated/?page=2\u0026per_page=15"
}
